patreco-week-5
…
fields

## Simple feature collection with 975 features and 2 fields
## Geometry type: POLYGON
## Dimension:     XY
## Bounding box:  xmin: 2568099 ymin: 1199766 xmax: 2578824 ymax: 1207836
## Projected CRS: CH1903+ / LV95
## # A tibble: 975 x 3
##    FieldID Frucht                                                           geom
##      <dbl> <chr>                                                   <POLYGON [m]>
##  1       1 Roggen ((2570914 1202743, 2570917 1202749, 2570985 1202833, 2571294 ~
##  2       0 <NA>   ((2570893 1202758, 2570893 1202758, 2570959 1202845, 2570985 ~
##  3       0 <NA>   ((2570868 1202776, 2570872 1202781, 2570913 1202828, 2570946 ~
##  4       2 Wiese  ((2570882 1203234, 2570641 1202974, 2570630 1202983, 2570606 ~
##  5       3 Weide  ((2570249 1203116, 2570371 1203328, 2570481 1203197, 2570390 ~
##  6       5 Weide  ((2570378 1203320, 2570466 1203436, 2570552 1203289, 2570481 ~
##  7       6 Weide  ((2570466 1203436, 2570572 1203495, 2570659 1203433, 2570659 ~
##  8       4 Weide  ((2569706 1203278, 2569706 1203342, 2570199 1203198, 2570223 ~
##  9       7 Wiese  ((2570804 1203310, 2570805 1203312, 2570900 1203608, 2571208 ~
## 10       0 Wald   ((2571004 1202990, 2571041 1203029, 2571073 1203003, 2571035 ~
## # ... with 965 more rows

Geometry type: Polygon Data types of cols: FieldID = dbl, Frucht = chr, geom = Polygon [m] CRS: CH1903+ / LV95

Task 2: Annotate trajectories from vector data

Filter wildboard data to the months of May to June

wildschwein_BE

## Simple feature collection with 51246 features and 6 fields
## Geometry type: POINT
## Dimension:     XY
## Bounding box:  xmin: 2568153 ymin: 1202306 xmax: 2575154 ymax: 1207609
## Projected CRS: CH1903+ / LV95
## # A tibble: 51,246 x 7
##    TierID TierName CollarID DatetimeUTC                E        N
##  * <chr>  <chr>       <dbl> <dttm>                 <dbl>    <dbl>
##  1 002A   Sabi        12275 2014-08-22 21:00:12 2570409. 1204752.
##  2 002A   Sabi        12275 2014-08-22 21:15:16 2570402. 1204863.
##  3 002A   Sabi        12275 2014-08-22 21:30:43 2570394. 1204826.
##  4 002A   Sabi        12275 2014-08-22 21:46:07 2570379. 1204817.
##  5 002A   Sabi        12275 2014-08-22 22:00:22 2570390. 1204818.
##  6 002A   Sabi        12275 2014-08-22 22:15:10 2570390. 1204825.
##  7 002A   Sabi        12275 2014-08-22 22:30:13 2570387. 1204831.
##  8 002A   Sabi        12275 2014-08-22 22:45:11 2570381. 1204840.
##  9 002A   Sabi        12275 2014-08-22 23:00:27 2570316. 1204935.
## 10 002A   Sabi        12275 2014-08-22 23:15:41 2570393. 1204815.
## # ... with 51,236 more rows, and 1 more variable: geometry <POINT [m]>
…
